{
    "KPlugin": {
        "Description": "Provides SSL certificate policy to applications",
        "Description[ar]": "يُوفّر سياسة شهادة SSL للتطبيقات",
        "Description[az]": "Tətbiqlər üçün SSL Sertifikatlar Siyasəti",
        "Description[ca@valencia]": "Proporciona la política pels certificats SSL a les aplicacions",
        "Description[ca]": "Proporciona a les aplicacions la política per als certificats SSL",
        "Description[cs]": "Poskytuje politiky certifikátů SSL pro aplikace",
        "Description[da]": "Leverer politik for SSL-certifikater til programmer",
        "Description[de]": "SSL-Zertifikat-Regel den Anwendungen zur Verfügung stellen",
        "Description[el]": "Παρέχει την πολιτική πιστοποιητικών SSL στις εφαρμογές",
        "Description[en_GB]": "Provides SSL certificate policy to applications",
        "Description[es]": "Proporciona una política de certificados SSL a las aplicaciones",
        "Description[et]": "SSL sertifikaadi reegli edastamine rakendustele",
        "Description[eu]": "Aplikazioei SSL ziurtagirien gidalerroak hornitzen dizkie",
        "Description[fi]": "Tarjoaa SSL-varmennekäytännön sovelluksille",
        "Description[fr]": "Fournit une attestation de certificat SSL aux applications",
        "Description[gd]": "Bheir seo poileasaidh airson teisteanasan SSL dha na h-aplacaidean",
        "Description[gl]": "Fornece a política de certificados de SSL para as aplicacións",
        "Description[hu]": "SSL tanúsítvány-házirendek biztosítása az alkalmazásoknak",
        "Description[ia]": "Il forni le politica de certification SSL pro le applicationes",
        "Description[id]": "Penyediaan kebijakan sertifikat SSL untuk aplikasi",
        "Description[it]": "Fornisce alle applicazioni la politica per i certificati SSL",
        "Description[ko]": "프로그램에 SSL 인증서 정책 제공",
        "Description[lt]": "Pateikia programoms SSL liudijimų politiką",
        "Description[nl]": "Levert het SSL-certificaat-beleid aan applicaties",
        "Description[nn]": "Gjev SSL-sertifikatreglar til program",
        "Description[pl]": "Udostępnia zasady certyfikatów SSL programom",
        "Description[pt]": "Oferece uma política de certificados de SSL às aplicações",
        "Description[pt_BR]": "Fornece uma política de certificados SSL aos aplicativos",
        "Description[ro]": "Furnizează politica de certificate SSL aplicațiilor",
        "Description[ru]": "Политика сертификатов SSL для приложений",
        "Description[sk]": "Poskytuje politiku SSL certifikátov pre aplikácie",
        "Description[sl]": "Programom ponuja pravilnike za potrdila SSL",
        "Description[sr@ijekavian]": "Пружа програмима смјернице ССЛ сертификата",
        "Description[sr@ijekavianlatin]": "Pruža programima smjernice SSL sertifikata",
        "Description[sr@latin]": "Pruža programima smernice SSL sertifikata",
        "Description[sr]": "Пружа програмима смернице ССЛ сертификата",
        "Description[sv]": "Tillhandahåller SSL-certifikatpolicyn till program",
        "Description[tg]": "Сиёсати гувоҳиномаи SSL-ро ба барномаҳо таъмин менамояд",
        "Description[tr]": "Uygulamalara SSL sertifika ilkesi sağlar",
        "Description[uk]": "Правила роботи з сертифікатами SSL для програм",
        "Description[x-test]": "xxProvides SSL certificate policy to applicationsxx",
        "Description[zh_CN]": "向应用程序提供 SSL 证书策略",
        "Description[zh_TW]": "提供 SSL 憑證政策給應用程式",
        "Name": "SSL Certificate Policy",
        "Name[ar]": "سياسة شهادة SSL",
        "Name[az]": "SSl Sertifikat Siyasəti",
        "Name[ca@valencia]": "Política pels certificats SSL",
        "Name[ca]": "Política per als certificats SSL",
        "Name[cs]": "Chování certifikátů SSL",
        "Name[da]": "Politik for SSL-certifikater",
        "Name[de]": "SSL-Zertifikat-Regel",
        "Name[el]": "Πολιτική πιστοποιητικών SSL",
        "Name[en_GB]": "SSL Certificate Policy",
        "Name[es]": "Política de certificados SSL",
        "Name[et]": "SSL sertifikaadi reegel",
        "Name[eu]": "SSL ziurtagirien gidalerroak",
        "Name[fi]": "SSL-varmennekäytäntö",
        "Name[fr]": "Attestation de certificat SSL",
        "Name[gd]": "Poileasaidh teisteanasan SSL",
        "Name[gl]": "Política de certificados de SSL",
        "Name[hu]": "SSL tanúsítvány-házirend",
        "Name[ia]": "Politica del certificato SSL",
        "Name[id]": "Kebijakan Sertifikat SSL",
        "Name[it]": "Politica dei certificati SSL",
        "Name[ko]": "SSL 인증서 정책",
        "Name[lt]": "SSL liudijimų politika",
        "Name[nl]": "SSL-certificaat-beleid",
        "Name[nn]": "SSL-sertifikatreglar",
        "Name[pl]": "Zasady certyfikatów SSL",
        "Name[pt]": "Política de Certificados de SSL",
        "Name[pt_BR]": "Política de certificados SSL",
        "Name[ro]": "Politică de certificate SSL",
        "Name[ru]": "Политика сертификатов SSL",
        "Name[sk]": "Politika SSL certifikátov",
        "Name[sl]": "Pravilnik za potrdila SSL",
        "Name[sr@ijekavian]": "Смјернице ССЛ сертификата",
        "Name[sr@ijekavianlatin]": "Smjernice SSL sertifikata",
        "Name[sr@latin]": "Smernice SSL sertifikata",
        "Name[sr]": "Смернице ССЛ сертификата",
        "Name[sv]": "SSL-certifikatpolicy",
        "Name[tg]": "Сиёсати гувоҳиномаи SSL",
        "Name[tr]": "SSL Sertifika Politikası",
        "Name[uk]": "Правила для сертифікатів SSL",
        "Name[x-test]": "xxSSL Certificate Policyxx",
        "Name[zh_CN]": "SSL 证书策略",
        "Name[zh_TW]": "SSL 憑證政策",
        "ServiceTypes": [
            "KDEDModule"
        ]
    },
    "X-KDE-DBus-ServiceName": "org.kde.kssld5"
}
